{
  "accentColor": "#49833a",
  "interfaceFontFamily": "霞鹜文楷",
  "textFontFamily": "霞鹜文楷",
  "baseFontSize": 25,
  "cssTheme": "Blue Topaz",
  "theme": "moonstone",
  "enabledCssSnippets": [
    "page-width"
  ]
}